Data Visualization Group Project
…
4 plot 6 the aggregate performance throughout the year [average performance for the full year]

#chekcing for total number rows wiht na values 
originalData_process[rowSums(is.na(originalData_process[, -1])) > 0,]

## # A tibble: 1,114 x 9
##    dates                 dax   sse bse_sensex ftse100 s_p500 topix euronext
##    <dttm>              <dbl> <dbl>      <dbl>   <dbl>  <dbl> <dbl>    <dbl>
##  1 2000-01-03 00:00:00 6751. 1367.      5375.   6930.  1455.   NA        NA
##  2 2000-01-04 00:00:00 6587. 1406.      5491.   6666.  1399. 1717.       NA
##  3 2000-01-05 00:00:00 6502. 1410.      5357    6536.  1402. 1652.       NA
##  4 2000-01-06 00:00:00 6475. 1464.      5422.   6447.  1403. 1610.       NA
##  5 2000-01-07 00:00:00 6781. 1517.      5414.   6505.  1441. 1599.       NA
##  6 2000-01-10 00:00:00 6926. 1545.      5518.   6608.  1458.   NA        NA
##  7 2000-01-11 00:00:00 6891. 1480.      5296.   6519.  1439. 1679.       NA
##  8 2000-01-12 00:00:00 6913. 1438.      5491.   6533.  1432. 1657.       NA
##  9 2000-01-13 00:00:00 6956. 1424.      5445.   6531.  1450. 1658.       NA
## 10 2000-01-14 00:00:00 7173. 1409.      5471.   6658.  1465. 1648.       NA
## # ... with 1,104 more rows, and 1 more variable: px <dbl>

#total of 11114 rows which is ~20% so could use the prevous datts
originalData_process[rowSums(is.na(originalData_process[, -1])) > 0 ,] %>% 
  filter(year(dates) == 2020)

## # A tibble: 49 x 9
##    dates                  dax   sse bse_sensex ftse100 s_p500 topix euronext
##    <dttm>               <dbl> <dbl>      <dbl>   <dbl>  <dbl> <dbl>    <dbl>
##  1 2020-01-01 00:00:00    NA    NA      41306.     NA     NA    NA       NA 
##  2 2020-01-02 00:00:00 13386. 3085.     41627.   7604.  3258.   NA     2929.
##  3 2020-01-03 00:00:00 13219. 3084.     41465.   7622.  3235.   NA     2915.
##  4 2020-01-13 00:00:00 13452. 3116.     41860.   7618.  3288.   NA     2903.
##  5 2020-01-20 00:00:00 13549. 3096.     41529.   7651.    NA  1744.    2922.
##  6 2020-01-24 00:00:00 13577.   NA      41613.   7586.  3295. 1730.    2873.
##  7 2020-01-27 00:00:00 13205.   NA      41155.   7412.  3244. 1703.    2818.
##  8 2020-01-28 00:00:00 13324.   NA      40967.   7481.  3276. 1692.    2838.
##  9 2020-01-29 00:00:00 13345    NA      41199.   7484.  3273. 1700.    2854.
## 10 2020-01-30 00:00:00 13157.   NA      40914.   7382.  3284. 1675.    2823.
## # ... with 39 more rows, and 1 more variable: px <dbl>
…
